----- Input for beta loop (loop.f) -------------
Number of Grid points,    Number of eigenfucntion
128                        120
Re,                       Alpha
1000.                      0.00
Lambdaz_min               Lambdaz_max
3.141592                       10 
Number of beta-loop       Log_option (1: log, 0: algebraic)
2                         1
